-13.920
-14.840
-14.910
-14.887
-14.859
-14.898
-14.927
-14.923
-14.909
-14.935
-14.943
-14.876
-14.817
-14.855
-14.893
-14.874
-14.896
-14.921
-14.928
-14.900
-14.753
-14.812
-14.883
-14.876
-14.867
-14.819
-14.849
-14.844
-14.867
-14.911
-14.941
-14.963
-14.953
-14.840
-14.837
-14.924
-14.936
-14.931
-14.893
-14.937
-14.944
-14.913
-14.784
-14.624
-14.758
-14.867
-14.881
-14.867
-14.895
-14.915
-14.923
-14.922
-14.921
-14.890
-14.907
-14.923
-14.919
-14.907
-14.910
-14.893
-14.856
-14.842
-14.836
-14.883
-14.928
-14.912
-14.885
-14.899
-14.892
-14.879
-14.915
-14.847
-14.742
-14.593
-14.791
-14.780
-14.636
-10.483
-1.023
10.180
7.302
8.078
8.585
4.600
3.856
4.668
5.828
6.689
8.363
7.972
2.313
3.459
6.601
6.778
8.877
8.180
9.156
13.940
16.908
14.962
12.212
11.694
8.627
9.443
9.972
6.660
6.484
7.580
7.562
5.703
5.317
5.048
0.481
2.984
6.189
7.692
6.572
7.993
9.384
6.744
4.526
4.824
5.593
6.004
5.459
4.457
2.799
2.483
2.174
-1.145
-4.607
-6.148
-6.700
-9.697
-12.404
-13.661
-13.251
-8.031
2.583
8.940
9.956
8.813
9.545
12.889
10.926
6.605
6.327
4.394
5.706
6.850
6.225
1.234
0.235
-3.030
-11.829
-13.970
-13.460
-10.014
-3.468
-3.677
-1.625
-1.316
-7.977
-10.765
-1.873
1.448
5.973
6.621
8.682
7.007
2.639
1.693
1.146
-0.167
-2.595
-5.493
-8.388
-11.081
-12.595
-11.932
-12.625
-14.141
-14.594
-14.568
-13.939
-12.753
-12.450
-12.967
-12.919
-13.994
-14.008
-13.464
-13.503
-14.355
-14.516
-14.110
-13.031
-13.902
-14.540
-14.500
-14.468
-14.649
-14.769
-14.825
-14.796
-14.664
-14.652
-14.492
-14.209
-14.203
-14.443
-14.642
-14.789
-14.860
-14.820
-14.552
-14.461
-14.539
-14.361
-14.537
-14.505
-14.283
-14.311
-14.186
-14.575
-14.748
-14.762
-14.724
-14.686
-14.369
-13.366
-14.045
-14.214
-13.633
-13.859
-14.591
-14.747
-14.748
-14.678
-14.715
-14.530
-14.323
-14.733
-14.819
-14.766
-14.320
-13.901
-13.973
-12.099
-12.918
-14.219
-14.012
-13.334
-12.862
-11.455
-12.692
-13.555
-14.621
-14.701
-14.569
-14.530
-14.520
-14.214
-14.480
-14.772
-14.831
-14.742
-14.288
-14.487
-14.793
-14.884
-14.843
-14.772
-14.679
-14.231
-14.651
-14.775
-14.704
-14.742
-14.683
-14.799
-14.805
-14.782
-14.753
-14.728
-14.705
-14.649
-14.627
-14.608
-14.531
-14.351
-13.973
-14.174
-14.578
-14.445
-14.192
-14.516
-14.767
-14.732
-14.929
