12.074
13.001
7.613
8.764
13.694
17.777
20.973
23.810
24.680
24.962
23.136
17.518
10.085
4.583
8.114
11.302
5.886
3.836
4.220
5.616
9.347
5.995
2.119
7.917
12.678
12.792
12.032
7.697
12.721
17.076
16.750
14.981
8.880
5.535
7.749
5.982
5.280
11.334
16.652
22.040
23.364
23.191
22.658
22.990
21.429
21.471
15.216
10.019
6.630
12.071
19.752
23.615
26.431
27.616
28.112
27.808
27.749
28.192
29.401
29.187
28.611
24.795
27.585
25.821
25.030
25.225
27.007
26.625
26.772
26.713
25.293
23.528
17.248
11.684
16.744
21.744
23.207
24.723
27.178
27.031
28.671
31.878
29.619
32.287
33.916
33.541
30.824
25.562
17.162
13.082
18.709
16.675
13.259
19.906
23.351
21.173
20.342
19.690
17.857
15.632
14.559
13.969
13.423
13.755
15.069
17.403
18.584
19.437
18.577
18.905
19.311
19.258
18.597
18.234
18.445
19.157
17.980
19.330
19.510
18.519
17.615
18.156
18.819
18.755
15.413
10.682
9.371
6.433
5.737
6.290
7.839
10.678
12.903
13.615
13.506
11.269
9.481
7.917
7.440
5.986
4.852
4.300
3.782
3.979
2.629
1.899
3.679
13.241
14.361
14.788
14.806
13.210
13.392
12.398
12.596
11.324
10.191
9.595
9.517
9.421
7.915
6.735
6.420
6.177
4.458
3.536
3.823
2.989
2.246
2.297
0.876
1.337
1.782
3.011
3.366
3.391
3.321
3.696
3.628
3.709
3.772
3.999
4.562
4.901
4.472
3.626
3.812
4.971
6.825
5.954
5.818
5.667
5.416
5.230
5.264
5.635
5.777
5.360
5.139
5.084
4.690
4.704
4.202
4.165
2.206
-0.068
0.356
0.975
3.755
0.577
2.437
4.515
1.076
1.964
6.108
5.031
2.973
4.380
8.123
3.034
3.511
3.511
8.713
2.749
4.930
7.147
5.589
6.365
9.055
10.602
7.206
7.048
5.455
9.744
7.187
9.916
11.195
11.432
5.446
10.170
11.219
6.237
10.081
12.827
3.649
7.730
10.496
5.069
7.919
11.100
6.912
5.825
4.497
8.697
16.079
17.553
18.446
19.848
20.850
18.591
14.033
12.561
10.116
9.150
8.034
6.090
8.448
8.780
9.422
12.824
9.262
5.534
8.981
16.054
19.041
19.704
19.423
18.808
17.896
17.278
16.146
16.861
17.180
17.857
17.748
17.515
15.536
13.092
12.284
8.537
6.962
5.062
3.591
4.521
6.270
4.946
12.157
18.904
25.415
-14.793
