5.569
14.437
16.918
13.171
10.626
15.243
19.044
17.991
19.461
25.041
24.507
21.034
23.114
21.576
21.863
21.203
23.555
26.614
24.924
25.167
29.730
28.555
24.330
29.842
22.205
24.669
25.881
25.517
21.082
19.936
25.865
24.639
18.610
25.059
25.071
20.241
19.645
27.555
31.917
34.638
34.761
34.814
34.804
34.805
34.675
34.773
33.896
29.122
26.915
27.638
29.934
30.271
29.558
27.513
30.553
28.327
26.396
28.356
27.664
28.941
30.191
30.986
30.690
32.488
34.669
34.842
34.894
34.908
34.921
34.927
34.930
34.932
34.932
34.937
34.933
34.928
34.928
34.916
34.889
34.859
34.857
34.878
34.879
34.896
34.886
34.864
34.822
34.721
34.369
31.844
33.577
33.651
34.372
34.850
34.885
34.886
34.858
34.816
34.671
34.394
33.680
33.684
28.824
27.308
24.905
32.432
33.954
32.152
34.759
34.846
34.860
34.861
34.821
34.798
34.708
34.626
31.569
23.756
27.631
20.635
22.499
21.314
23.552
14.907
20.558
32.203
33.717
33.985
34.013
32.172
29.762
34.568
34.894
34.906
34.905
34.909
34.919
34.924
34.927
34.923
34.928
34.930
34.926
34.916
34.912
34.905
34.895
34.874
34.843
34.805
34.757
34.456
33.482
29.176
25.484
18.777
27.720
28.498
19.746
18.622
25.610
34.239
33.718
29.125
31.943
28.530
30.510
27.488
27.203
25.071
27.751
23.972
28.829
25.647
17.024
28.758
26.313
22.001
25.212
18.428
16.735
16.878
15.652
23.673
25.453
27.326
25.859
16.405
18.860
15.351
21.979
24.438
14.625
22.394
22.180
24.285
18.593
27.194
27.674
31.454
34.593
34.916
34.952
34.956
34.955
34.956
34.958
34.953
34.941
34.926
34.858
33.810
29.790
24.114
21.593
30.600
31.407
32.666
33.335
32.661
30.220
31.241
34.458
34.862
34.929
34.946
34.946
34.946
34.944
34.932
34.912
34.914
34.921
34.907
34.912
34.915
34.930
34.925
34.921
34.927
34.926
34.928
34.936
34.935
34.933
34.924
34.924
34.930
34.928
34.920
34.930
34.943
34.946
34.947
34.947
34.948
34.940
34.934
34.929
34.934
34.912
34.876
34.705
33.512
30.058
25.154
26.162
14.376
20.132
24.441
27.265
30.118
32.565
32.566
33.905
34.125
34.177
34.003
32.508
30.422
30.491
30.797
32.446
33.979
33.869
33.593
34.208
34.687
34.784
34.844
34.872
34.898
34.907
34.898
34.864
34.780
34.055
32.387
32.478
-14.489
