-10.063
-11.342
-13.765
-14.786
-14.900
-14.891
-14.856
-14.830
-14.887
-14.936
-14.946
-14.925
-14.858
-14.886
-14.943
-14.944
-14.902
-14.848
-14.931
-14.933
-14.897
-14.902
-14.913
-14.811
-14.679
-14.805
-14.883
-14.902
-14.896
-14.904
-14.908
-14.924
-14.924
-14.898
-14.883
-14.929
-14.957
-14.932
-14.924
-14.957
-14.953
-14.878
-14.701
-13.208
-12.080
-12.413
-13.352
-13.109
-14.177
-14.339
-13.751
-14.196
-14.833
-14.902
-14.935
-14.924
-14.803
-14.773
-14.740
-14.789
-14.809
-14.815
-14.850
-14.778
-14.788
-14.843
-14.848
-14.747
-14.861
-14.932
-14.945
-14.935
-14.897
-14.909
-14.911
-14.930
-14.894
-14.918
-14.842
-14.790
-14.856
-14.886
-14.819
-14.781
-14.489
-14.659
-14.819
-14.781
-14.873
-14.733
-14.419
-14.443
-14.716
-14.871
-14.852
-14.719
-11.802
5.803
9.126
10.472
11.539
11.259
11.171
4.530
-1.949
-5.425
-9.354
-11.302
-12.540
-13.337
-13.881
-12.253
-13.227
-12.512
-11.485
-8.736
-10.107
2.018
12.232
12.863
15.813
16.892
15.436
11.216
5.922
-2.276
-10.989
-13.382
-12.330
-14.206
-13.547
-6.991
-7.471
0.063
9.841
6.447
1.510
-1.524
-3.397
-6.105
-11.908
-12.423
-12.389
-10.309
-5.881
-1.431
4.002
8.101
10.612
12.449
14.338
13.616
10.718
3.660
2.697
4.041
2.367
1.331
7.992
12.207
13.187
12.577
8.314
5.954
2.298
-0.573
-4.311
-10.234
-11.844
-12.674
-13.265
-1.325
2.975
2.362
-1.374
-2.745
-1.582
-1.100
0.184
1.017
-5.816
-12.204
-12.925
-11.974
-12.033
-13.907
-14.861
-14.854
-14.584
-14.743
-14.611
-9.658
3.433
1.843
3.008
5.324
3.370
-0.615
2.144
-0.747
-0.286
2.258
1.137
2.946
2.289
1.959
-0.411
-3.016
0.039
1.421
3.384
0.928
1.620
0.270
-3.899
-6.406
-2.381
-2.396
-7.681
-9.035
-10.603
-11.998
-11.803
-11.791
-13.170
-14.573
-14.672
-14.654
-14.648
-14.865
-14.827
-14.743
-14.769
-14.769
-14.870
-14.916
-14.936
-14.955
-14.904
-14.906
-14.936
-14.898
-14.587
-14.550
-14.888
-14.948
-14.958
-14.959
-14.943
-14.950
-14.949
-14.958
-14.966
-14.952
-14.843
-14.719
-14.822
-14.909
-14.898
-14.935
-14.953
-14.953
-14.923
-14.951
-14.942
-14.873
-14.872
-14.947
-14.885
-14.910
-14.936
-14.915
-14.941
-14.928
-14.931
-14.906
-14.834
-14.915
-14.904
-14.869
-14.783
-14.634
-14.821
-14.866
-14.840
-14.663
-14.756
-14.930
-14.944
-14.940
-14.933
-14.871
-14.885
-14.882
-14.799
-14.746
-14.771
-14.887
-14.863
-14.961
