-13.572
-14.671
-14.895
-14.923
-14.935
-14.951
-14.939
-14.776
-14.626
-14.797
-14.905
-14.953
-14.949
-14.939
-14.927
-14.921
-14.903
-14.899
-14.937
-14.859
-14.796
-14.773
-14.888
-14.903
-14.895
-14.806
-14.819
-14.876
-14.859
-14.491
-14.530
-14.742
-14.756
-14.871
-14.851
-14.780
-14.832
-14.816
-14.884
-14.905
-14.945
-14.951
-14.870
-14.794
-14.911
-14.951
-14.945
-14.915
-14.866
-14.913
-14.890
-14.828
-14.848
-14.869
-14.812
-14.812
-14.861
-14.947
-14.938
-14.877
-14.885
-14.909
-14.923
-14.893
-14.870
-14.882
-14.899
-14.826
-14.810
-14.900
-14.938
-14.872
-14.847
-14.891
-14.886
-14.854
-14.792
-14.763
-14.757
-14.822
-14.790
-14.853
-14.757
-14.732
-13.524
-13.293
-14.307
-14.558
-14.671
-14.696
-14.776
-14.815
-14.862
-14.813
-14.634
-14.818
-13.652
-7.043
5.201
9.439
9.836
11.197
10.232
4.024
-5.349
-10.872
-10.641
-4.610
-3.369
-4.869
-5.745
-2.822
5.934
8.082
10.563
10.417
9.212
8.869
7.875
6.154
5.040
1.775
-0.303
-2.931
-5.845
-0.528
7.687
8.197
4.522
4.379
6.506
9.006
8.367
5.661
-2.489
-11.918
-14.074
-14.212
-13.317
-7.423
-10.356
-12.495
-8.635
-4.994
-5.741
-7.379
-4.743
-2.191
-1.866
-3.335
-0.465
4.266
5.101
4.310
3.868
1.127
-0.830
0.035
3.164
1.551
0.125
2.787
5.793
5.664
3.055
-4.524
-8.608
-10.962
-14.381
-14.670
-14.438
-14.703
-14.681
-14.256
-14.072
-14.584
-14.495
-9.331
-3.098
-2.388
-0.648
-3.208
-5.912
-9.955
-12.824
-13.215
-13.702
-13.509
-14.650
-14.471
-8.080
-5.849
-3.017
4.186
6.598
0.973
-4.468
-4.222
-6.080
-6.309
-1.364
-1.097
-3.446
-3.030
-1.398
-5.478
-11.401
-14.655
-14.291
-10.210
-7.432
-0.002
2.334
3.245
2.362
3.641
6.892
6.655
2.907
0.125
-1.664
1.523
4.462
2.570
0.617
-3.316
-2.795
-5.561
-5.983
-2.342
-0.896
-2.683
-5.760
-9.874
-11.433
-11.919
-13.270
-13.763
-13.375
-11.689
-8.644
-10.932
-9.706
-9.301
-14.224
-14.687
-14.529
-14.730
-14.761
-14.502
-13.915
-12.766
-14.356
-14.662
-14.484
-14.790
-14.787
-14.606
-14.390
-14.819
-14.912
-14.911
-14.821
-14.827
-14.763
-14.794
-14.836
-14.861
-14.819
-14.688
-14.691
-14.745
-14.765
-14.396
-14.662
-14.619
-14.777
-14.845
-14.835
-14.778
-14.874
-14.842
-14.870
-14.918
-14.912
-14.936
-14.924
-14.871
-14.930
-14.931
-14.909
-14.915
-14.906
-14.902
-14.853
-14.875
-14.920
-14.857
-14.616
-14.957
